%YAML 1.1
%TAG !u! tag:unity3d.com,2011:
--- !u!221 &22100000
AnimatorOverrideController:
  m_ObjectHideFlags: 0
  m_CorrespondingSourceObject: {fileID: 0}
  m_PrefabInstance: {fileID: 0}
  m_PrefabAsset: {fileID: 0}
  m_Name: HellephantAOC
  m_Controller: {fileID: 9100000, guid: dd10c7d71fdcc7a408df5968bb2e496d, type: 2}
  m_Clips:
  - m_OriginalClip: {fileID: 7400004, guid: be66986effd141b4992d2d78be127139, type: 3}
    m_OverrideClip: {fileID: 7400004, guid: b77f122f451a2394898a24191c26107c, type: 3}
  - m_OriginalClip: {fileID: 7400002, guid: be66986effd141b4992d2d78be127139, type: 3}
    m_OverrideClip: {fileID: 7400002, guid: b77f122f451a2394898a24191c26107c, type: 3}
  - m_OriginalClip: {fileID: 7400000, guid: be66986effd141b4992d2d78be127139, type: 3}
    m_OverrideClip: {fileID: 7400000, guid: b77f122f451a2394898a24191c26107c, type: 3}
